FINALEXAM123PART5
…
# A tibble: 5 × 2
  cut       avg_table
  <ord>         <dbl>
1 Fair           59.1
2 Good           58.7
3 Very Good      58.0
4 Premium        58.7
5 Ideal          56.0

#c)
diamonds |> filter(clarity == "IF")

# A tibble: 1,790 × 10
   carat cut       color clarity depth table price     x     y     z
   <dbl> <ord>     <ord> <ord>   <dbl> <dbl> <int> <dbl> <dbl> <dbl>
 1  0.52 Ideal     F     IF       62.2    55  2783  5.14  5.18  3.21
 2  0.55 Ideal     G     IF       60.9    57  2789  5.28  5.3   3.22
 3  0.64 Ideal     G     IF       61.3    56  2790  5.54  5.58  3.41
 4  0.72 Premium   I     IF       63      57  2795  5.72  5.7   3.6 
 5  0.6  Very Good G     IF       61.6    56  2800  5.43  5.46  3.35
 6  0.61 Ideal     G     IF       62.3    56  2800  5.43  5.45  3.39
 7  0.53 Ideal     F     IF       61.9    54  2802  5.22  5.25  3.24
 8  0.56 Very Good E     IF       61      59  2833  5.28  5.34  3.24
 9  0.58 Very Good E     IF       60.6    59  2852  5.37  5.43  3.27
10  0.62 Fair      F     IF       60.1    61  2861  5.53  5.56  3.33
# ℹ 1,780 more rows

#d)
diamonds |> arrange(desc(price))

# A tibble: 53,940 × 10
   carat cut       color clarity depth table price     x     y     z
   <dbl> <ord>     <ord> <ord>   <dbl> <dbl> <int> <dbl> <dbl> <dbl>
 1  2.29 Premium   I     VS2      60.8    60 18823  8.5   8.47  5.16
 2  2    Very Good G     SI1      63.5    56 18818  7.9   7.97  5.04
 3  1.51 Ideal     G     IF       61.7    55 18806  7.37  7.41  4.56
 4  2.07 Ideal     G     SI2      62.5    55 18804  8.2   8.13  5.11
 5  2    Very Good H     SI1      62.8    57 18803  7.95  8     5.01
 6  2.29 Premium   I     SI1      61.8    59 18797  8.52  8.45  5.24
 7  2.04 Premium   H     SI1      58.1    60 18795  8.37  8.28  4.84
 8  2    Premium   I     VS1      60.8    59 18795  8.13  8.02  4.91
 9  1.71 Premium   F     VS2      62.3    59 18791  7.57  7.53  4.7 
10  2.15 Ideal     G     SI2      62.6    54 18791  8.29  8.35  5.21
# ℹ 53,930 more rows

#e)
diamonds |> mutate(Carat.Price.Ratio = price/carat, .after = depth)

# A tibble: 53,940 × 11
   carat cut       color clarity depth Carat.Price.Ratio table price     x     y
   <dbl> <ord>     <ord> <ord>   <dbl>             <dbl> <dbl> <int> <dbl> <dbl>
 1  0.23 Ideal     E     SI2      61.5             1417.    55   326  3.95  3.98
 2  0.21 Premium   E     SI1      59.8             1552.    61   326  3.89  3.84
 3  0.23 Good      E     VS1      56.9             1422.    65   327  4.05  4.07
 4  0.29 Premium   I     VS2      62.4             1152.    58   334  4.2   4.23
 5  0.31 Good      J     SI2      63.3             1081.    58   335  4.34  4.35
 6  0.24 Very Good J     VVS2     62.8             1400     57   336  3.94  3.96
 7  0.24 Very Good I     VVS1     62.3             1400     57   336  3.95  3.98
 8  0.26 Very Good H     SI1      61.9             1296.    55   337  4.07  4.11
 9  0.22 Fair      E     VS2      65.1             1532.    61   337  3.87  3.78
10  0.23 Very Good H     VS1      59.4             1470.    61   338  4     4.05
# ℹ 53,930 more rows
# ℹ 1 more variable: z <dbl>
…
